{
    "musicId": 145,
    "events": [
        {
            "bar": 0,
            "bpm": 152
        },
        {
            "bar": 1,
            "section": "intro"
        },
        {
            "bar": 5,
            "section": "verse"
        },
        {
            "bar": 17,
            "section": "verse-2"
        },
        {
            "bar": 25,
            "section": "bridge"
        },
        {
            "bar": 35,
            "section": "chorus"
        },
        {
            "bar": 43,
            "section": "inter"
        },
        {
            "bar": 55,
            "section": "chorus-2"
        },
        {
            "bar": 73,
            "section": "outro"
        }
    ]
}