{
    "musicId": 147,
    "events": [
        {
            "bar": 0,
            "bpm": 102,
            "section": "intro"
        },
        {
            "bar": 8,
            "section": "verse"
        },
        {
            "bar": 16,
            "section": "bridge"
        },
        {
            "bar": 24,
            "section": "chorus"
        },
        {
            "bar": 32,
            "section": "inter"
        },
        {
            "bar": 40,
            "section": "chorus-2"
        },
        {
            "bar": 48,
            "section": "outro"
        }
    ]
}