{
    "musicId": 153,
    "events": [
        {
            "bar": 0,
            "bpm": 128
        },
        {
            "bar": 1,
            "section": "intro"
        },
        {
            "bar": 9,
            "section": "verse"
        },
        {
            "bar": 17,
            "section": "chorus"
        },
        {
            "bar": 25,
            "section": "bridge"
        },
        {
            "bar": 33,
            "section": "chorus-2"
        },
        {
            "bar": 41,
            "section": "bridge-2"
        },
        {
            "bar": 49,
            "section": "chorus-3"
        },
        {
            "bar": 57,
            "section": "outro"
        }
    ]
}