{
    "musicId": 167,
    "events": [
        {
            "bar": 0,
            "bpm": 176,
            "section": "intro"
        },
        {
            "bar": 16,
            "section": "verse"
        },
        {
            "bar": 32,
            "section": "bridge"
        },
        {
            "bar": 40,
            "section": "chorus"
        },
        {
            "bar": 56,
            "section": "bridge-2"
        },
        {
            "bar": 72,
            "section": "chorus-2"
        },
        {
            "bar": 88,
            "section": "chorus-3"
        }
    ]
}