{
    "musicId": 172,
    "events": [
        {
            "bar": 0,
            "bpm": 120,
            "section": "intro"
        },
        {
            "bar": 8,
            "section": "verse"
        },
        {
            "bar": 18,
            "section": "verse-2"
        },
        {
            "bar": 26,
            "section": "bridge"
        },
        {
            "bar": 34,
            "section": "chorus"
        },
        {
            "bar": 42,
            "section": "chorus-2"
        },
        {
            "bar": 50,
            "section": "post-chorus"
        }
    ]
}